2,331	4.62	348	3,461
2,467	4.9	373	1,684
2,559	4.55	357	3,502
2,525	4.56	321	989
2,023	4.7	267	3,983
1,465	4.91	202	253
1,525	4.1	176	381
2,539	4.28	327	930
3,664	4.46	428	1,311
2,949	4.35	354	4,632
2,717	4.69	326	2,354
2,329	4.64	279	2,902
1,709	4.35	189	628
1,780	4.66	194	625
2,871	4.85	497	2,842
2,914	4.6	442	1,501
2,462	4.55	347	411
2,555	4.59	361	1,589
2,349	4.85	375	935
1,488	4.46	173	776
1,560	4.67	217	2,028
2,573	4.71	394	11,550
2,597	4.41	300	1,027
2,469	4.37	328	601
2,505	4.28	337	1,645
2,297	4.61	320	1,532
1,579	4.21	204	1,213
1,595	4.51	228	1,981
2,546	4.42	348	4,328
2,561	4.25	358	1,459
2,167	4.19	296	676